<?xml version="1.0" standalone="no"?>

<!--
SPDX-FileCopyrightText: 2024 Jan Škrle <j.skrle@gmail.com>

SPDX-License-Identifier: GPL-3.0-or-later
-->

<svg version="1.1" width="500" height="500" xmlns="http://www.w3.org/2000/svg">
  <title>Basic</title>
  <defs>
    <radialGradient id="bgradient" cx="0.5" cy="0.5" r="0.5" fx="0.25" fy="0.25">
      <stop offset="0%" stop-color="grey"/>
      <stop offset="100%" stop-color="black"/>
    </radialGradient>
    <radialGradient id="wgradient" cx="0.5" cy="0.5" r="0.5" fx="0.25" fy="0.25">
      <stop offset="0%" stop-color="white"/>
      <stop offset="100%" stop-color="silver"/>
    </radialGradient>
    <g id="bstone">
      <rect x="0" y="0" width="100" height="100" fill="none" stroke="none"/>
      <circle cx="50" cy="50" r="49.5" fill="url(#bgradient)"/> <!-- TODO shadow, also create plain theme (just color) -->
    </g>
    <g id="wstone">
      <rect x="0" y="0" width="100" height="100" fill="none" stroke="none"/>
      <circle id="wstone" cx="50" cy="50" r="49.5" fill="url(#wgradient)"/>
    </g>
    <rect id="background" x="0" y="0" width="100" height="100" fill="orange" stroke="none"/>
    <g id="topleft" stroke="black" stroke-width="1">
      <use href="#background" x="0" y="0"/>
      <line x1="50" y1="50" x2="100" y2="50"/>
      <line x1="50" y1="50" x2="50" y2="100"/>
    </g>
    <g id="top" stroke="black" stroke-width="1">
      <use href="#background" x="0" y="0"/>
      <line x1="0" y1="50" x2="100" y2="50"/>
      <line x1="50" y1="50" x2="50" y2="100"/>
    </g>
    <g id="topright" stroke="black" stroke-width="1">
      <use href="#background" x="0" y="0"/>
      <line x1="0" y1="50" x2="50" y2="50"/>
      <line x1="50" y1="50" x2="50" y2="100"/>
    </g>
    <g id="left" stroke="black" stroke-width="1">
      <use href="#background" x="0" y="0"/>
      <line x1="50" y1="50" x2="100" y2="50"/>
      <line x1="50" y1="0" x2="50" y2="100"/>
    </g>
    <g id="middle" stroke="black" stroke-width="1">
      <use href="#background" x="0" y="0"/>
      <line x1="0" y1="50" x2="100" y2="50"/>
      <line x1="50" y1="0" x2="50" y2="100"/>
    </g>
    <g id="right" stroke="black" stroke-width="1">
      <use href="#background" x="0" y="0"/>
      <line x1="0" y1="50" x2="50" y2="50"/>
      <line x1="50" y1="0" x2="50" y2="100"/>
    </g>
    <g id="bottomleft" stroke="black" stroke-width="1">
      <use href="#background" x="0" y="0"/>
      <line x1="50" y1="50" x2="100" y2="50"/>
      <line x1="50" y1="0" x2="50" y2="50"/>
    </g>
    <g id="bottom" stroke="black" stroke-width="1">
      <use href="#background" x="0" y="0"/>
      <line x1="0" y1="50" x2="100" y2="50"/>
      <line x1="50" y1="0" x2="50" y2="50"/>
    </g>
    <g id="bottomright" stroke="black" stroke-width="1">
      <use href="#background" x="0" y="0"/>
      <line x1="0" y1="50" x2="50" y2="50"/>
      <line x1="50" y1="0" x2="50" y2="50"/>
    </g>
    <g id="hoshi" stroke="black" stroke-width="1">
      <use href="#background" x="0" y="0"/>
      <line x1="0" y1="50" x2="100" y2="50"/>
      <line x1="50" y1="0" x2="50" y2="100"/>
      <circle cx="50" cy="50" r="6" fill="black" stroke="none"/>
    </g>
    <g id="marked" stroke="black" stroke-width="1">
      <use href="#background" x="0" y="0"/>
      <line x1="0" y1="50" x2="15" y2="50"/>
      <line x1="50" y1="0" x2="50" y2="15"/>
      <line x1="85" y1="50" x2="100" y2="50"/>
      <line x1="50" y1="85" x2="50" y2="100"/>
    </g>
  </defs>
  <use id="sbstone" href="#bstone" x="0" y="0" fill-opacity="0.33"/>
  <use id="swstone" href="#wstone" x="0" y="100" fill-opacity="0.33"/>
  <use href="#bstone" x="100" y="0"/>
  <use href="#wstone" x="100" y="100"/>
  <use href="#topleft" x="0" y="200"/>
  <use href="#top" x="100" y="200"/>
  <use href="#topright" x="200" y="200"/>
  <use href="#hoshi" x="300" y="200"/>
  <use href="#left" x="0" y="300"/>
  <use href="#middle" x="100" y="300"/>
  <use href="#right" x="200" y="300"/>
  <use href="#marked" x="300" y="300"/>
  <use href="#bottomleft" x="0" y="400"/>
  <use href="#bottom" x="100" y="400"/>
  <use href="#bottomright" x="200" y="400"/>
</svg>
